tensor([-0.1502,  0.0082, -0.1420, -0.1584,  0.0706, -0.1843, -0.1686, -0.1529,
        -0.1529, -0.1451, -0.1294, -0.1137, -0.0341, -0.0184, -0.0027, -0.0027,
         0.0051,  0.0208,  0.0365], device='cuda:0', dtype=torch.float64)

tensor([-0.1578,  0.0085, -0.1494, -0.1663,  0.0549, -0.1843, -0.1765, -0.1608,
        -0.1608, -0.1529, -0.1373, -0.1294, -0.0265, -0.0186, -0.0029, -0.0029,
         0.0049,  0.0206,  0.0284], device='cuda:0', dtype=torch.float64)



[[ 0.14322353  0.00713529  0.15035882 ...  0.00510431  0.02079059,   0.03647686], [ 0.14152157  0.00867406  0.15019563 ...  0.00490824  0.02059451,   0.02843765], [ 0.13064784  0.00819666  0.13884451 ...  0.0041098   0.01979608,   0.01979608], ..., [-0.05600471  0.00779132 -0.04821339 ...  0.00229333  0.01797961,   0.04935216], [-0.05652392  0.00984727 -0.04667665 ...  0.00472471  0.02041098,   0.1302149 ], [-0.05325804  0.0093368  -0.04392124 ...  0.00216941  0.01785569,   0.15903216]]


[[-0.11864941  0.00704062 -0.11160879 ...  0.00143373  0.01712,   0.06417882], [-0.11164078  0.00727733 -0.10436346 ...  0.0018902   0.01757647,   0.10385098], [-0.10408157  0.00668017 -0.0974014  ...  0.00229333  0.01797961,   0.03366588], ..., [ 0.0285349   0.0067944   0.0353293  ...  0.00492549  0.01276863,   0.02061176], [ 0.02372392  0.007414    0.03113792 ...  0.00391686  0.01960314,   0.06666196], [ 0.01845804  0.00704342  0.02550146 ...  0.00375059  0.01943686,   0.05865255]]
